{
	"variables": [],
	"info": {
		"name": "Fake Teespring",
		"_postman_id": "cf8cd3c1-b926-1d08-6962-d7032f6845b5",
		"description": "",
		"schema": "https://schema.getpostman.com/json/collection/v2.0.0/collection.json"
	},
	"item": [
		{
			"name": "PATCH /api/jobs/:id",
			"request": {
				"url": "http://localhost:4567/api/jobs/171",
				"method": "PATCH",
				"header": [
					{
						"key": "Accept",
						"value": "application/json",
						"description": ""
					},
					{
						"key": "Content-Type",
						"value": "application/json",
						"description": ""
					}
				],
				"body": {
					"mode": "raw",
					"raw": "{\n  \"update_types\": [\n    \"accepted\"\n  ]\n}"
				},
				"description": ""
			},
			"response": []
		},
		{
			"name": "GET api/shipments/111/label",
			"request": {
				"url": "http://localhost:4567/api/shipments/111/label",
				"method": "GET",
				"header": [
					{
						"key": "Accept",
						"value": "application/json",
						"description": ""
					},
					{
						"key": "Content-Type",
						"value": "application/json",
						"description": ""
					}
				],
				"body": {},
				"description": ""
			},
			"response": []
		}
	]
}